…
# Data binding and joining

With all the data loaded, we are going to start binding and joining the different oieces to get to our main, combined,dataset

Let's start by binding the two years of results data into one:


```r
low_results <- bind_rows(low_results_2002, low_results_2004)

low_results
```

```
## # A tibble: 326 × 7
##    sample_id nitrate nitrite ammonia total_nitrogen_mixed_forms solubl…¹ total…²
##    <chr>     <chr>   <chr>   <chr>   <chr>                      <chr>    <chr>  
##  1 W_277     430     20      270     1400                       74       77     
##  2 W_279     270     10      20      670                        41       44     
##  3 W_278     <LOD    1       10      435                        18       25     
##  4 W_281     86      3       15      455                        33       40     
##  5 W_282     87      3       15      485                        29       34     
##  6 W_283     140     5       10      540                        32       36     
##  7 W_289     <LOD    <LOD    10      430                        16       25     
##  8 W_291     <LOD    1       10      405                        23       32     
##  9 W_298     2       1       15      445                        5        14     
## 10 W_299     9       2       25      455                        8        19     
## # … with 316 more rows, and abbreviated variable names
## #   ¹​soluble_reactive_phosphorus_srp, ²​total_phosphorus_mixed_forms
```

Now that we have our complete hree pieces (sites, sample_log, and results), we want to join thse toguether. For that we will use the `left_join()` function starting by joining the sample log to the site info (using *monitoring_location_id* as our key column) followed by a left yoing with the results data (using *sample_id* as our key column)


```r
low_data <- low_sample_log %>% 
  left_join(low_sites, by = "monitoring_location_id") %>% 
  left_join(low_results, by = "sample_id")

low_data
```

```
## # A tibble: 332 × 23
##    sample_id monitorin…¹ activ…² activ…³ activ…⁴ activ…⁵   day month  year  hour
##    <chr>     <chr>       <chr>   <chr>     <dbl> <chr>   <dbl> <dbl> <dbl> <dbl>
##  1 W_277     1           Sample… Surfac…      NA <NA>        6     1  2002    10
##  2 W_278     2           Sample… Surfac…      NA <NA>        6     1  2002    13
##  3 W_279     3B          Sample… Surfac…      NA <NA>        6     1  2002    14
##  4 W_281     59          Sample… Surfac…      NA <NA>        6     2  2002    12
##  5 W_282     5           Sample… Surfac…      NA <NA>        6     2  2002    13
##  6 W_283     60C         Sample… Surfac…      NA <NA>        6     2  2002    14
##  7 W_289     57B         Sample… Surfac…      NA <NA>        6     5  2002    14
##  8 W_291     60B         Sample… Surfac…      NA <NA>        6     6  2002    15
##  9 W_298     57          Sample… Surfac…      NA <NA>        6    11  2002    12
## 10 W_299     11          Sample… Surfac…      NA <NA>        6    11  2002    17
## # … with 322 more rows, 13 more variables: minute <dbl>,
## #   monitoring_location_name <chr>, monitoring_location_latitude <dbl>,
## #   monitoring_location_longitude <dbl>,
## #   monitoring_location_horizontal_coordinate_reference_system <chr>,
## #   monitoring_location_waterbody <chr>, basin <chr>, nitrate <chr>,
## #   nitrite <chr>, ammonia <chr>, total_nitrogen_mixed_forms <chr>,
## #   soluble_reactive_phosphorus_srp <chr>, …
```
…
low_data_long
```

```
## # A tibble: 1,992 × 19
##    sample_id monitorin…¹ activ…² activ…³ activ…⁴ activ…⁵   day month year   hour
##    <chr>     <chr>       <chr>   <chr>     <dbl> <chr>   <dbl> <dbl> <fct> <dbl>
##  1 W_277     1           Sample… Surfac…      NA <NA>        6     1 2002     10
##  2 W_277     1           Sample… Surfac…      NA <NA>        6     1 2002     10
##  3 W_277     1           Sample… Surfac…      NA <NA>        6     1 2002     10
##  4 W_277     1           Sample… Surfac…      NA <NA>        6     1 2002     10
##  5 W_277     1           Sample… Surfac…      NA <NA>        6     1 2002     10
##  6 W_277     1           Sample… Surfac…      NA <NA>        6     1 2002     10
##  7 W_278     2           Sample… Surfac…      NA <NA>        6     1 2002     13
##  8 W_278     2           Sample… Surfac…      NA <NA>        6     1 2002     13
##  9 W_278     2           Sample… Surfac…      NA <NA>        6     1 2002     13
## 10 W_278     2           Sample… Surfac…      NA <NA>        6     1 2002     13
## # … with 1,982 more rows, 9 more variables: minute <dbl>,
## #   monitoring_location_name <chr>, monitoring_location_latitude <dbl>,
## #   monitoring_location_longitude <dbl>,
## #   monitoring_location_horizontal_coordinate_reference_system <chr>,
## #   monitoring_location_waterbody <chr>, basin <chr>, parameter <chr>,
## #   concentration <dbl>, and abbreviated variable names
## #   ¹​monitoring_location_id, ²​activity_type, ³​activity_media_name, …
```
…
